Measles
…
cases_month |>
  calc_measles_case_quality() |>
  group_by(region, year) |>
  summarize(
    avg_clinical_rate = mean(clinical_rate,  na.rm = TRUE),
    avg_epi_link_rate = mean(epi_link_rate, na.rm = TRUE),
    avg_lab_confirm_rate = mean(lab_confirm_rate,  na.rm = TRUE),
    .groups = "drop"
  )

# A tibble: 82 × 5
   region  year avg_clinical_rate avg_epi_link_rate avg_lab_confirm_rate
   <chr>  <dbl>             <dbl>             <dbl>                <dbl>
 1 AFR     2012             0.313            0.0961                0.591
 2 AFR     2013             0.260            0.131                 0.609
 3 AFR     2014             0.376            0.113                 0.510
 4 AFR     2015             0.351            0.167                 0.482
 5 AFR     2016             0.406            0.134                 0.460
 6 AFR     2017             0.446            0.115                 0.438
 7 AFR     2018             0.531            0.111                 0.358
 8 AFR     2019             0.369            0.146                 0.485
 9 AFR     2020             0.298            0.135                 0.567
10 AFR     2021             0.270            0.127                 0.603
# ℹ 72 more rows
…
regions <- cases_month |>
  distinct(region) |>
  pull(region)

monthly_regional_avgs <- regions |>
  map(calc_monthly_avg, df = cases_month) |>
  list_rbind() |>
  arrange(region, month)

monthly_regional_avgs

# A tibble: 72 × 4
   month avg_measles_total prop_annual_cases region
   <dbl>             <dbl>             <dbl> <chr> 
 1     1             248.             0.151  AFR   
 2     2             314.             0.191  AFR   
 3     3             319.             0.194  AFR   
 4     4             185.             0.112  AFR   
 5     5             114.             0.0697 AFR   
 6     6              75.7            0.0461 AFR   
 7     7              64.4            0.0392 AFR   
 8     8              64.9            0.0395 AFR   
 9     9              58.7            0.0357 AFR   
10    10              64.8            0.0395 AFR   
# ℹ 62 more rows
…
covid_cleaned_df

# A tibble: 170 × 40
   country `2020-01` `2020-02` `2020-03` `2020-04` `2020-05` `2020-06` `2020-07`
   <chr>       <int>     <int>     <int>     <int>     <int>     <int>     <int>
 1 Afghan…         0         5       166      1827     15180     31445     36628
 2 Albania         0         0       243       773      1137      2535      5276
 3 Algeria         0         1       716      4006      9394     13907     30394
 4 Andorra         0         0       376       745       764       855       925
 5 Angola          0         0         7        27        86       284      1148
 6 Antigu…         0         0         7        24        26        69        91
 7 Argent…         0         0      1054      4428     16851     64530    191302
 8 Armenia         0         0       532      2066      9282     25542     38550
 9 Austra…         9        25      4559      6766      7202      7920     17280
10 Austria         0         3      9264     15402     16610     17629     20873
# ℹ 160 more rows
# ℹ 32 more variables: `2020-08` <int>, `2020-09` <int>, `2020-10` <int>,
#   `2020-11` <int>, `2020-12` <int>, `2021-01` <int>, `2021-02` <int>,
#   `2021-03` <int>, `2021-04` <int>, `2021-05` <int>, `2021-06` <int>,
#   `2021-07` <int>, `2021-08` <int>, `2021-09` <int>, `2021-10` <int>,
#   `2021-11` <int>, `2021-12` <int>, `2022-01` <int>, `2022-02` <int>,
#   `2022-03` <int>, `2022-04` <int>, `2022-05` <int>, `2022-06` <int>, …
…
